Name,Age,Sex,Equipment,Division,BodyweightKg,WeightClassKg,Squat1Kg,Squat2Kg,Squat3Kg,Squat4Kg,Best3SquatKg,Bench1Kg,Bench2Kg,Bench3Kg,Bench4Kg,Best3BenchKg,Deadlift1Kg,Deadlift2Kg,Deadlift3Kg,Deadlift4Kg,Best3DeadliftKg,TotalKg,Place,Event
Andy Huang #1,31,M,Raw,M_OR_APF,122.5,125,342.5,-355,355,,355,210,220,-227.5,,220,347.5,365,377.5,,377.5,952.5,1,SBD
Aniekan Akpaninyie,27,M,Raw,M_OR_APF,93.7,100,175,180,-185,,180,122.5,-130,-130,,122.5,225,240,-262.5,,240,542.5,5,SBD
Ben Tritle,31,M,Raw,M_OR_APF,106.6,110,205,-227.5,227.5,,227.5,152.5,160,-165,,160,227.5,237.5,247.5,,247.5,635,3,SBD
Bill Lee,31,M,Raw,M_OR_APF,149.2,140+,275,292.5,300,,300,182.5,-192.5,195,,195,310,327.5,340,,340,835,1,SBD
CJ Reed,36,M,Raw,M_OR_APF,74.7,75,142.5,152.5,,,152.5,132.5,-137.5,-137.5,,132.5,197.5,202.5,210,,210,495,2,SBD
CJ Reed,36,M,Raw,M_SR_APF,74.7,75,142.5,152.5,,,152.5,132.5,-137.5,-137.5,,132.5,197.5,202.5,210,,210,495,1,SBD
Chris Lindsay #1,39,M,Raw,M_OR_APF,54.9,56,125,140,147.5,155,147.5,72.5,80,85,-90,85,172.5,187.5,195,200,195,427.5,1,SBD
Chris Lindsay #1,39,M,Raw,M_SR_APF,54.9,56,125,140,147.5,155,147.5,72.5,80,85,-90,85,172.5,187.5,195,200,195,427.5,1,SBD
Cleveland Rose,36,M,Raw,M_OR_APF,99,100,180,195,-215,,195,105,120,-125,,120,230,247.5,265,,265,580,3,SBD
Cole Barton #2,26,M,Raw,M_OR_APF,81.7,82.5,227.5,245,-255,,245,-167.5,182.5,-187.5,,182.5,252.5,-272.5,-272.5,,252.5,680,2,SBD
Darren Flagg,43,M,Raw,M_OR_APF,74.8,75,192.5,,,,192.5,125,132.5,-140,,132.5,215,235,245,,245,570,1,SBD
David Herrera #1,29,M,Raw,M_OR_APF,81.75,82.5,230,245,257.5,,257.5,155,165,-172.5,,165,277.5,292.5,305,,305,727.5,1,SBD
David Sutor,38,M,Raw,M_SR_APF,81.6,82.5,175,182.5,190,,190,107.5,-112.5,-112.5,,107.5,220,240,-252.5,,240,537.5,1,SBD
Dejuan Garland,34,M,Raw,M_OR_APF,138.2,140,235,255,,,255,175,190,-192.5,,190,262.5,280,-285,,280,725,3,SBD
Derek Roblyer,27,M,Raw,M_OR_APF,98.5,100,190,207.5,-235,,207.5,160,177.5,-185,,177.5,270,300,305,,305,690,2,SBD
Ian Saftlas,29,M,Raw,M_OR_APF,88.4,90,182.5,192.5,200,,200,120,125,130,,130,230,237.5,-242.5,,237.5,567.5,3,SBD
Jacob Stratton,28,M,Raw,M_OR_APF,89.9,90,-237.5,237.5,250,,250,175,-182.5,-182.5,,175,282.5,295,-305,,295,720,1,SBD
James Strickland #1,35,M,Raw,M_OR_APF,125,125,220,230,-242.5,,230,240,250,262.5,267.5,262.5,250,272.5,-287.5,,272.5,765,3,SBD
James Strickland #1,35,M,Raw,M_SR_APF,125,125,220,230,-242.5,,230,240,250,262.5,267.5,262.5,250,272.5,-287.5,,272.5,765,1,SBD
Jeff Hunwick,28,M,Raw,M_OR_APF,99.5,100,147.5,160,175,,175,120,-125,125,,125,180,192.5,202.5,,202.5,502.5,6,SBD
Jeffrey Calderone,25,M,Raw,M_OR_APF,107.9,110,205,222.5,235,,235,122.5,-130,132.5,,132.5,245,265,-272.5,,265,632.5,4,SBD
Jeffrey Martin,46,M,Raw,M_OR_APF,109.1,110,205,230,250,,250,160,182.5,-187.5,,182.5,240,265,275,,275,707.5,1,SBD
Jonathan Chunn,27,M,Raw,M_OR_APF,79.5,82.5,220,245,-252.5,,245,135,-147.5,-152.5,,135,267.5,287.5,-292.5,,287.5,667.5,3,SBD
Justin Sepe,28,M,Raw,M_OR_APF,81.1,82.5,172.5,177.5,182.5,,182.5,125,142.5,145,,145,225,232.5,247.5,,247.5,575,5,SBD
Kevin Agbulos,28,M,Raw,M_OR_APF,109.2,110,242.5,250,255,,255,137.5,142.5,-145,,142.5,242.5,252.5,257.5,,257.5,655,2,SBD
Martin Adlen,24,M,Raw,M_OR_APF,88.1,90,185,192.5,-197.5,,192.5,120,130,-135,,130,192.5,207.5,-217.5,,207.5,530,4,SBD
Matt Tripp,38,M,Raw,M_OR_APF,89.05,90,235,242.5,-250,,242.5,152.5,-165,-165,,152.5,227.5,242.5,-255,,242.5,637.5,2,SBD
Matt Tripp,38,M,Raw,M_SR_APF,89.05,90,235,242.5,-250,,242.5,152.5,-165,-165,,152.5,227.5,242.5,-255,,242.5,637.5,1,SBD
Matthew Hayre,30,M,Raw,M_OR_APF,97.6,100,175,190,200,,200,120,130,-137.5,,130,220,-245,-245,,220,550,4,SBD
Michael Brown #10,31,M,Raw,M_OR_APF,139.95,140,227.5,250,272.5,,272.5,217.5,-230,,,217.5,287.5,295,305,,305,795,1,SBD
Patrick Callahan,30,M,Raw,M_OR_APF,111.7,125,222.5,227.5,232.5,,232.5,-125,-125,125,,125,215,220,-230,,220,577.5,4,SBD
Prather Lanier,30,M,Raw,M_OR_APF,125,125,265,280,-287.5,,280,165,175,182.5,,182.5,280,305,-317.5,,305,767.5,2,SBD
Sal Cotto III,28,M,Raw,M_OR_APF,139.55,140,275,280,290,,290,160,177.5,182.5,,182.5,272.5,295,-325,,295,767.5,2,SBD
Schuylar Parent,29,M,Raw,M_OR_APF,79.6,82.5,192.5,-200,200,,200,142.5,-152.5,-152.5,,142.5,245,-252.5,-252.5,,245,587.5,4,SBD
Sean Baumann,34,M,Raw,M_SR_APF,97.7,100,-170,170,-177.5,,170,142.5,-152.5,152.5,,152.5,192.5,205,-222.5,,205,527.5,1,SBD
Stetson Drolet,28,M,Raw,M_OR_APF,73.5,75,167.5,-177.5,177.5,,177.5,90,95,-100,,95,175,182.5,-187.5,,182.5,455,3,SBD
TJ Kropp,25,M,Raw,M_OR_APF,100,100,260,-272.5,-272.5,,260,215,222.5,227.5,,227.5,302.5,-320,-320,,302.5,790,1,SBD
Aaron Laird,18,M,Raw,M_TR_3_APF,88.55,90,212.5,230,240,-245,240,162.5,170,177.5,-182.5,177.5,257.5,275,-287.5,,275,692.5,1,SBD
Aaron Lundgaard,41,M,Raw,M_MR_1_APF,109.5,110,237.5,260,265,,265,170,192.5,-197.5,,192.5,235,257.5,270,,270,727.5,1,SBD
Alec Sweeney,17,M,Raw,M_TR_2_APF,81,82.5,192.5,207.5,-215,,207.5,145,152.5,157.5,-160,157.5,237.5,245,-253,,245,610,1,SBD
Craig Robertson,45,M,Raw,M_MR_2_APF,94.75,100,210,227.5,245,,245,170,-180,,,170,250,257.5,-262.5,,257.5,672.5,1,SBD
Dan Oberman,50,M,Raw,M_MR_3_APF,89.5,90,147.5,157.5,167.5,,167.5,117.5,-125,127.5,,127.5,220,235,-250,,235,530,2,SBD
David Burshtan,54,M,Raw,M_MR_3_APF,97.9,100,110,125,137.5,,137.5,100,112.5,-122.5,,112.5,140,155,167.5,,167.5,417.5,1,SBD
David Summers,54,M,Raw,M_MR_3_APF,88,90,175,185,187.5,,187.5,140,147.5,-157.5,,147.5,190,200,210,,210,545,1,SBD
Dennis Affinati,52,M,Raw,M_MR_3_APF,88.9,90,137.5,142.5,150,,150,107.5,110,-115,,110,165,175,182.5,,182.5,442.5,3,SBD
Dennis Liberti,46,M,Raw,M_MR_2_APF,89.7,90,185,-200,205,,205,160,167.5,-177.5,,167.5,227.5,235,-237.5,,235,607.5,1,SBD
Doug Petersen,61,M,Raw,M_MR_5_APF,81.4,82.5,175,190,202.5,,202.5,120,125,-127.5,,125,197.5,-215,215,,215,542.5,1,SBD
Elijah Dertz,13,M,Raw,M_TR_1_APF,78,82.5,120,130,137.5,,137.5,90,95,-97.5,,95,145,152.5,160,,160,392.5,1,SBD
Garrin Clark,47,M,Raw,M_MR_2_APF,79.7,82.5,142.5,155,-165,,155,105,110,115,,115,202.5,210,-220,,210,480,1,SBD
George Cliff Shipley,57,M,Raw,M_MR_4_APF,72.7,75,100,110,120,,120,90,95,-97.5,,95,185,195,200,,200,415,2,SBD
Greg Zweig,56,M,Raw,M_MR_4_APF,82.1,82.5,160,-175,175,182.5,175,-130,130,-135,,130,230,245,-250,,245,550,1,SBD
Gregory Borgerson,65,M,Raw,M_MR_6_APF,80.2,82.5,100,-115,-115,,100,90,-95,-95,,90,160,175,-185,,175,365,1,SBD
Gregory Ripley,55,M,Raw,M_MR_4_APF,74,75,125,137.5,147.5,,147.5,120,-130,,,120,142.5,175,-197.5,,175,442.5,1,SBD
Gregory Shearer,40,M,Raw,M_MR_1_APF,99.9,100,112.5,137.5,152.5,,152.5,110,-120,-120,,110,162.5,185,202.5,,202.5,465,1,SBD
Jean-Paul Roberts,43,M,Raw,M_MR_1_APF,89.65,90,155,170,175,,175,100,107.5,-115,,107.5,182.5,195,207.5,,207.5,490,2,SBD
Jermichael Pratt,42,M,Raw,M_MR_1_APF,117.45,125,160,182.5,205,,205,137.5,145,150,,150,222.5,235,240,,240,595,1,SBD
Jhonatan Palomar,21,M,Raw,M_JR_APF,82,82.5,185,195,202.5,,202.5,112.5,-120,-120,,112.5,255,262.5,-272.5,,262.5,577.5,1,SBD
Joe Fortin,18,M,Raw,M_TR_3_APF,97.35,100,207.5,222.5,235,-247.5,235,142.5,-152.5,-152.5,,142.5,210,225,240,,240,617.5,1,SBD
John Hehrer,45,M,Raw,M_MR_2_APF,159.8,140+,-255,255,280,-295,280,-170,-170,,,,,,,,,,DQ,SBD
John Wood,51,M,Raw,M_MR_3_APF,81.3,82.5,150,162.5,,,162.5,-150,150,,,150,215,230,242.5,,242.5,555,1,SBD
Jose Ramirez #8,18,M,Raw,M_TR_3_APF,58.3,60,120,125,132.5,,132.5,92.5,-100,100,,100,162.5,175,182.5,,182.5,415,1,SBD
Joseph Cornish,53,M,Raw,M_MR_3_APF,73.1,75,175,192.5,207.5,,207.5,117.5,130,-135,,130,215,230,242.5,,242.5,580,1,SBD
Josh Naert,17,M,Raw,M_TR_2_APF,114,125,-142.5,142.5,150,,150,102.5,112.5,-122.5,,112.5,185,197.5,-207.5,,197.5,460,1,SBD
Mark Eichenseer,59,M,Raw,M_MR_4_APF,80.7,82.5,35,,,,35,102.5,,,,102.5,102.5,145,165,,165,302.5,3,SBD
Mark Hobneck,57,M,Raw,M_MR_4_APF,80.9,82.5,127.5,147.5,-160,,147.5,110,127.5,-135,,127.5,127.5,152.5,162.5,,162.5,437.5,2,SBD
Marvin Mann,55,M,Raw,M_MR_4_APF,89.6,90,200,222.5,230,,230,140,152.5,-160,,152.5,220,252.5,265,,265,647.5,1,SBD
Michael McNulty,15,M,Raw,M_TR_1_APF,74.7,75,165,180,187.5,-192.5,187.5,85,-100,-100,,85,180,197.5,202.5,207.5,202.5,475,1,SBD
Michael Sell,21,M,Raw,M_JR_APF,109.2,110,245,265,-272.5,,265,155,167.5,,,167.5,275,-297.5,-297.5,,275,707.5,1,SBD
Mike Pascarella,51,M,Raw,M_MR_3_APF,121.9,125,220,230,242.5,,242.5,145,150,155,,155,235,250,262.5,,262.5,660,1,SBD
Mike Wider,68,M,Raw,M_MR_6_APF,66.8,67.5,112.5,122.5,130,,130,70,80,90,,90,170,185,193.5,,193.5,413.5,1,SBD
Noah Hessenthaler,16,M,Raw,M_TR_2_APF,62.5,67.5,122.5,137.5,142.5,,142.5,72.5,82.5,-95,,82.5,165,172.5,-182.5,,172.5,397.5,1,SBD
Peter Ruane,19,M,Raw,M_TR_3_APF,82,82.5,205,217.5,-228.5,,217.5,105,117.5,-127.5,,117.5,240,253,-257.5,,253,588,1,SBD
Ricco Bertoletti,16,M,Raw,M_TR_2_APF,97,100,-205,205,215,,215,145,152.5,157.5,-160,157.5,205,217.5,227.5,,227.5,600,1,SBD
Ryan McCabe,18,M,Raw,M_TR_3_APF,97.55,100,162.5,175,185,,185,100,107.5,112.5,,112.5,205,215,227.5,,227.5,525,2,SBD
Scott Johnson,47,M,Raw,M_MR_2_APF,110,110,147.5,160,170,,170,105,117.5,125,,125,182.5,192.5,205,,205,500,1,SBD
Terel Monroe,20,M,Raw,M_JR_APF,64.9,67.5,150,-180,-180,,150,120,-127.5,127.5,,127.5,227.5,250,-262.5,,250,527.5,1,SBD
Tim Sheehan,64,M,Raw,M_MR_5_APF,102.5,110,182.5,202.5,-212.5,,202.5,135,-150,-150,,135,192.5,,,,192.5,530,1,SBD
Tom Walters,78,M,Raw,M_MR_8_APF,90.1,100,60,,,,60,60,70,,,70,70,,,,70,200,1,SBD
Vincent Falzetta,18,M,Raw,M_TR_3_APF,72.65,75,187.5,-200,200,,200,127.5,135,-140,,135,200,215,,,215,550,1,SBD
William Hosken,78,M,Raw,M_MR_8_APF,78.3,82.5,80,85,87.5,,87.5,55,60,65,,65,110,125,135,,135,287.5,1,SBD
Alisha Oseguera,21,F,Raw,F_JR_APF,73.2,75,107.5,-112.5,115,,115,57.5,60,-62.5,,60,135,-142.5,-142.5,,135,310,2,SBD
Allison Hazel,22,F,Raw,F_JR_APF,70.55,75,117.5,125,-132.5,,125,72.5,-77.5,-77.5,,72.5,147.5,152.5,-155,,152.5,350,1,SBD
Amanda Barr,21,F,Raw,F_JR_APF,65.15,67.5,85,87.5,92.5,,92.5,-52.5,52.5,-57.5,,52.5,60,-112.5,,,60,205,2,SBD
Andrea Richards,45,F,Raw,F_MR_2_APF,60,60,115,120,127.5,,127.5,72.5,77.5,-80,,77.5,135,145,152.5,,152.5,357.5,1,SBD
Ashley Lepcin,26,F,Raw,F_OR_APF,78.15,82.5,130,140,147.5,,147.5,77.5,82.5,-87.5,,82.5,170,180,-185,,180,410,2,SBD
Ashley Porter,29,F,Raw,F_OR_APF,71.6,75,90,92.5,97.5,,97.5,50,52.5,-55,,52.5,112.5,125,132.5,,132.5,282.5,1,SBD
Ashley Torok,20,F,Raw,F_JR_APF,66.6,67.5,90,-100,-100,,90,50,57.5,-62.5,,57.5,110,-115,-115,,110,257.5,1,SBD
Gloria Summers,45,F,Raw,F_MR_2_APF,53.45,56,55,62.5,72.5,,72.5,40,45,47.5,,47.5,90,102.5,-107.5,,102.5,222.5,1,SBD
Jennifer Schmult,19,F,Raw,F_TR_3_APF,65.6,67.5,105,110,-115,,110,67.5,-72.5,72.5,,72.5,115,122.5,127.5,,127.5,310,1,SBD
Joan Cooper,56,F,Raw,F_MR_4_APF,59.1,60,52.5,57.5,65,,65,47.5,50,52.5,,52.5,102.5,-110,117.5,,117.5,235,1,SBD
Joanne Barnes #2,52,F,Raw,F_MR_3_APF,83.25,90,-70,-70,70,,70,50,55,57.5,,57.5,100,105,112.5,,112.5,240,1,SBD
Kaitie Naert,14,F,Raw,F_TR_1_APF,109.9,90+,65,-82.5,82.5,,82.5,40,47.5,52.5,-58,52.5,110,122.5,140,-142.5,140,275,1,SBD
Kaitlyn Korecki,19,F,Raw,F_TR_3_APF,65,67.5,100,105,-110,,105,50,52.5,-55,,52.5,122.5,125,-127.5,,125,282.5,2,SBD
Karlie Swanson,22,F,Raw,F_JR_APF,119.65,90+,175,182.5,187.5,,187.5,87.5,92.5,-95,,92.5,167.5,175,182.5,,182.5,462.5,1,SBD
Kate Bochenek,17,F,Raw,F_TR_2_APF,72.3,75,-100,107.5,-115,,107.5,42.5,52.5,-57.5,,52.5,127.5,142.5,150.5,-152.5,150.5,310.5,1,SBD
Katreece Rucha,16,F,Raw,F_TR_2_APF,51.6,52,57.5,65,75,,75,50,55,-60,,55,77.5,90,100,107.5,100,230,1,SBD
Kiara Frey,28,F,Raw,F_OR_APF,117.6,90+,155,162.5,167.5,,167.5,75,80,-85,,80,170,177.5,185,,185,432.5,2,SBD
Kristin Floreno,34,F,Raw,F_OR_APF,46.25,48,52.5,57.5,62.5,,62.5,35,40,-45,,40,77.5,82.5,92.5,,92.5,195,1,SBD
Laine Heuer,29,F,Raw,F_OR_APF,67.15,67.5,90,97.5,102.5,,102.5,52.5,-57.5,-57.5,,52.5,112.5,120,127.5,,127.5,282.5,1,SBD
Lindsey Lee,35,F,Raw,F_SR_APF,102.8,90+,-160,-160,160,,160,82.5,87.5,92.5,,92.5,165,172.5,182.5,,182.5,435,1,SBD
Lindsey Lee,35,F,Raw,F_OR_APF,102.8,90+,-160,-160,160,,160,82.5,87.5,92.5,,92.5,165,172.5,182.5,,182.5,435,1,SBD
Maureen Harty,41,F,Raw,F_MR_1_APF,66.7,67.5,87.5,-95,95,,95,40,-45,45,,45,107.5,112.5,117.5,,117.5,257.5,1,SBD
Maureen Harty,41,F,Raw,F_OR_APF,66.7,67.5,87.5,-95,95,,95,40,-45,45,,45,107.5,112.5,117.5,,117.5,257.5,2,SBD
Melissa Gibson,44,F,Raw,F_MR_1_APF,105.25,90+,92.5,100,-112.5,,100,-47.5,50,-60,,50,95,107.5,115,,115,265,2,SBD
Michelle Kania,36,F,Raw,F_SR_APF,69.95,75,80,90,97.5,,97.5,57.5,60,-62.5,,60,102.5,112.5,117.5,,117.5,275,1,SBD
Mindy Schwartz,60,F,Raw,F_MR_5_APF,96.45,90+,82.5,87.5,92.5,,92.5,55,60,62.5,,62.5,137.5,142.5,-147.5,,142.5,297.5,1,SBD
Nora Langdon,73,F,Raw,F_MR_7_APF,89.5,90,115,,,,115,62.5,,,,62.5,165,173,-182.5,,173,350.5,1,SBD
Shorook Quran,28,F,Raw,F_OR_APF,58.3,60,82.5,92.5,97.5,,97.5,42.5,-45,45,,45,105,115,-122.5,,115,257.5,1,SBD
Tera Kinnane,40,F,Raw,F_MR_1_APF,103.1,90+,132.5,147.5,162.5,-167.5,162.5,75,82.5,87.5,-90,87.5,162.5,175,-185,,175,425,1,SBD
Tracy Campbell,40,F,Raw,F_OR_APF,79.8,82.5,155,165,175,,175,110,115,-122.5,,115,185,197.5,207.5,,207.5,497.5,1,SBD
Adam Hurst,26,M,Raw,M_OR_APF,105.45,110,,,,,,,,,,,297.5,305,315,,315,315,1,D
Andrew Ottaway,22,M,Raw,M_OR_APF,98.4,100,,,,,,,,,,,275,295,-320,,295,295,1,D
April Simon,38,F,Raw,F_OR_APF,64.55,67.5,,,,,,,,,,,152.5,165,170,,170,170,1,D
Arthur Little,61,M,Raw,M_OR_APF,70.7,75,,,,,,,,,,,232.5,242.5,250,,250,250,1,D
Arthur Little,61,M,Raw,M_MR_5_APF,70.7,75,,,,,,,,,,,232.5,242.5,250,,250,250,1,D
Ben Pauli,29,M,Raw,M_OR_APF,98.2,100,,,,,,,,,,,-275,-275,,,,,DQ,D
Daniel Styczynski,25,M,Raw,M_OR_APF,81.2,82.5,,,,,,,,,,,-220,-220,-220,,,,DQ,D
Dick Zenzen,,M,Raw,M_MR_5_APF,117.9,125,,,,,,,,,,,110,160,-182.5,,160,160,1,D
Jake Benson,22,M,Raw,M_JR_APF,88.6,90,,,,,,,,,,,270,-275,275,-283,275,275,1,D
James Shmagranoff,28,M,Raw,M_OR_APF,97.5,100,,,,,,,,,,,232.5,255,-265,,255,255,2,D
Jonathan Drummond,50,M,Raw,M_MR_3_APF,131.2,140,,,,,,,,,,,272.5,300,320,-325,320,320,1,D
Jordan Sprague,22,M,Raw,M_OR_APF,119.2,125,,,,,,,,,,,295,-320,-320,,295,295,1,D
Jordan Sprague,22,M,Raw,M_JR_APF,119.2,125,,,,,,,,,,,295,-320,-320,,295,295,1,D
Liam Tran,16,M,Raw,M_TR_2_APF,127.35,140,,,,,,,,,,,-165,165,182.5,192.5,182.5,182.5,2,D
Linda Koos,61,F,Raw,F_MR_5_APF,97.05,90+,,,,,,,,,,,62.5,-75,-82.5,,62.5,62.5,1,D
Mark Eichenseer,59,M,Raw,M_MR_4_APF,80.5,82.5,,,,,,,,,,,185,197.5,207.5,,207.5,207.5,1,D
Mike Krieger,35,M,Raw,M_SR_APF,90.3,100,,,,,,,,,,,202.5,217.5,-230,,217.5,217.5,1,D
Missy Mapes,58,F,Raw,F_MR_4_APF,57.85,60,,,,,,,,,,,92.5,107.5,-117.5,,107.5,107.5,1,D
Neal Dakmak,28,M,Raw,M_OR_APF,109.4,110,,,,,,,,,,,312.5,-337.5,-337.5,,312.5,312.5,2,D
Rachel Benson,23,F,Raw,F_JR_APF,66.55,67.5,,,,,,,,,,,-162.5,162.5,-167.5,,162.5,162.5,1,D
Tom Walters,78,M,Raw,M_MR_8_APF,88.7,90,,,,,,,,,,,100,115,130,,130,130,1,D
Willam Allen,69,M,Raw,M_MR_6_APF,83.3,90,,,,,,,,,,,125,137.5,147.5,,147.5,147.5,1,D
Zach Gnatkowski,16,M,Raw,M_TR_2_APF,127.4,140,,,,,,,,,,,230,250,-272.5,,250,250,1,D
Adam Hurst,26,M,Raw,M_OR_APF,105.45,110,,,,,,207.5,217.5,-220,,217.5,,,,,,217.5,2,B
Aissa Galang,37,F,Raw,F_OR_APF,100.55,90+,,,,,,97.5,102.5,110,,110,,,,,,110,1,B
Andrew Jeleniewski,49,M,Raw,M_MR_2_APF,119.7,125,,,,,,200,207.5,212.5,,212.5,,,,,,212.5,3,B
April Simon,38,F,Raw,F_OR_APF,64.55,67.5,,,,,,80,87.5,-92.5,,87.5,,,,,,87.5,1,B
Ben Mata,61,M,Raw,M_MR_5_APF,127.9,140,,,,,,150,157.5,-160,,157.5,,,,,,157.5,1,B
Ben Pauli,29,M,Raw,M_OR_APF,98.2,100,,,,,,160,-170,170,,170,,,,,,170,2,B
Bill Busby,64,M,Raw,M_OR_APF,85.3,90,,,,,,125,-132.5,-132.5,,125,,,,,,125,3,B
Bill Busby,64,M,Raw,M_MR_5_APF,85.3,90,,,,,,125,-132.5,-132.5,,125,,,,,,125,1,B
Bobby Body,41,M,Raw,M_OR_APF,80.9,82.5,,,,,,180,-187.5,192.5,,192.5,,,,,,192.5,1,B
Bobby Body,41,M,Raw,M_MR_1_APF,80.9,82.5,,,,,,180,-187.5,192.5,,192.5,,,,,,192.5,1,B
Bobby Faber,38,M,Raw,M_OR_APF,123.5,125,,,,,,217.5,-240,-240,,217.5,,,,,,217.5,4,B
Brandon Colwell,17,M,Raw,M_TR_2_APF,117.65,125,,,,,,132.5,142.5,-147.5,,142.5,,,,,,142.5,1,B
Chad Shepard,33,M,Raw,M_OR_APF,81.95,82.5,,,,,,165,-170,177.5,,177.5,,,,,,177.5,2,B
Chad Witkowski,35,M,Raw,M_OR_APF,97.85,100,,,,,,155,165,-175,,165,,,,,,165,3,B
Cory Henry,40,M,Raw,M_OR_APF,108.1,110,,,,,,205,212.5,220,,220,,,,,,220,1,B
Cory Henry,40,M,Raw,M_MR_1_APF,108.1,110,,,,,,205,212.5,220,,220,,,,,,220,1,B
Craig Hoffer,54,M,Raw,M_OR_APF,201.55,140+,,,,,,227.5,-240,-240,,227.5,,,,,,227.5,2,B
Craig Hoffer,54,M,Raw,M_MR_3_APF,201.55,140+,,,,,,227.5,-240,-240,,227.5,,,,,,227.5,1,B
Dale Szymanski,46,M,Raw,M_MR_2_APF,117.65,125,,,,,,195,212.5,215,,215,,,,,,215,1,B
Daniel LaBombard,41,M,Raw,M_MR_1_APF,80.2,82.5,,,,,,140,150,-160,,150,,,,,,150,2,B
Daniel Morjal,38,M,Raw,M_OR_APF,155.5,140+,,,,,,-245,245,257.5,,257.5,,,,,,257.5,1,B
Daniel Morjal,38,M,Raw,M_SR_APF,155.5,140+,,,,,,-245,245,257.5,,257.5,,,,,,257.5,1,B
David Martinez #1,46,M,Raw,M_MR_2_APF,122.5,125,,,,,,215,-232.5,-232.5,,215,,,,,,215,2,B
David Zigler,35,M,Raw,M_OR_APF,107.45,110,,,,,,182.5,207.5,-215,,207.5,,,,,,207.5,4,B
David Zigler,35,M,Raw,M_SR_APF,107.45,110,,,,,,182.5,207.5,-215,,207.5,,,,,,207.5,1,B
Dick Zenzen,,M,Raw,M_MR_5_APF,117.9,125,,,,,,80,-95,95,,95,,,,,,95,1,B
Dickie Spiroff,47,M,Raw,M_MR_2_APF,105.9,110,,,,,,145,182.5,-215,,182.5,,,,,,182.5,1,B
Dickie Spiroff,47,M,Raw,M_OR_APF,105.9,110,,,,,,145,182.5,-215,,182.5,,,,,,182.5,5,B
Don Waltz,53,M,Raw,M_MR_3_APF,96.9,100,,,,,,110,115,-120,,115,,,,,,115,3,B
Eric Limban,27,M,Raw,M_OR_APF,107,110,,,,,,-215,-215,215,,215,,,,,,215,3,B
Eric Poplar,37,M,Raw,M_OR_APF,133.6,140,,,,,,-190,-190,190,,190,,,,,,190,2,B
Eric Poplar,37,M,Raw,M_SR_APF,133.6,140,,,,,,-190,-190,190,,190,,,,,,190,1,B
Evan Young,24,M,Raw,M_OR_APF,109.4,110,,,,,,160,-172.5,-172.5,,160,,,,,,160,6,B
Harold Mobley,50,M,Raw,M_MR_3_APF,121.3,125,,,,,,185,-192.5,-192.5,,185,,,,,,185,1,B
Ian Scott,78,M,Raw,M_MR_8_APF,81.9,82.5,,,,,,110,115,-120,,115,,,,,,115,1,B
James Briggs,57,M,Raw,M_OR_APF,97.8,100,,,,,,117.5,125,-132.5,,125,,,,,,125,4,B
James Briggs,57,M,Raw,M_MR_4_APF,97.8,100,,,,,,117.5,125,-132.5,,125,,,,,,125,1,B
James Strickland #1,35,M,Raw,M_OR_APF,122.4,125,,,,,,250,-257.5,257.5,260.5,257.5,,,,,,257.5,2,B
James Strickland #1,35,M,Raw,M_SR_APF,122.4,125,,,,,,250,-257.5,257.5,260.5,257.5,,,,,,257.5,1,B
Janet Sink,73,F,Raw,F_MR_7_APF,92.1,90+,,,,,,45,-50,-50,,45,,,,,,45,1,B
Jaran Rutledge,30,M,Raw,M_OR_APF,137,140,,,,,,245,-260,,,245,,,,,,245,1,B
Jason Allen,42,M,Raw,M_MR_1_APF,117.1,125,,,,,,167.5,177.5,185,,185,,,,,,185,2,B
Jeron Roberson,34,M,Raw,M_OR_APF,59.4,60,,,,,,122.5,127.5,-132.5,,127.5,,,,,,127.5,1,B
Jeron Roberson,34,M,Raw,M_SR_APF,59.4,60,,,,,,122.5,127.5,-132.5,,127.5,,,,,,127.5,1,B
John Draher,40,M,Raw,M_OR_APF,119.5,125,,,,,,227.5,-237.5,-237.5,,227.5,,,,,,227.5,3,B
John Vakos,44,M,Raw,M_MR_1_APF,90,90,,,,,,147.5,152.5,-155,,152.5,,,,,,152.5,1,B
Jonathan Usky,30,M,Raw,M_OR_APF,109.5,110,,,,,,-167.5,-172.5,-172.5,,,,,,,,,DQ,B
Kailey Spires,15,F,Raw,F_OR_APF,57.8,60,,,,,,55,62.5,-65,,62.5,,,,,,62.5,2,B
Kailey Spires,15,F,Raw,F_TR_1_APF,57.8,60,,,,,,55,62.5,-65,,62.5,,,,,,62.5,1,B
Kayla Seeley,19,F,Raw,F_TR_3_APF,71.8,75,,,,,,75,-80,80,85,80,,,,,,80,1,B
Ken Bram,49,M,Raw,M_OR_APF,66.9,67.5,,,,,,145,-147.5,-147.5,,145,,,,,,145,1,B
Kent Spires,45,M,Raw,M_OR_APF,89.7,90,,,,,,233,-242.5,-242.5,,233,,,,,,233,1,B
Kent Spires,45,M,Raw,M_MR_2_APF,89.7,90,,,,,,233,-242.5,-242.5,,233,,,,,,233,1,B
Kevin Schroeder,24,M,Raw,M_OR_APF,182.3,140+,,,,,,187.5,200,-207.5,,200,,,,,,200,3,B
Kitty Wood,47,F,Raw,F_MR_2_APF,53.75,56,,,,,,-32.5,32.5,35,,35,,,,,,35,1,B
Lanelle Pearl,33,M,Raw,M_OR_APF,78.55,82.5,,,,,,147.5,150,-152.5,,150,,,,,,150,3,B
Linda Koos,61,F,Raw,F_MR_5_APF,97.05,90+,,,,,,35,42.5,-48,,42.5,,,,,,42.5,1,B
Liz Dudek,58,F,Raw,F_OR_APF,59.4,60,,,,,,67.5,70,-75,,70,,,,,,70,1,B
Liz Dudek,58,F,Raw,F_MR_4_APF,59.4,60,,,,,,67.5,70,-75,,70,,,,,,70,1,B
Marlon Garrett,35,M,Raw,M_OR_APF,100.25,110,,,,,,137.5,147.5,-155,,147.5,,,,,,147.5,8,B
Marvin Coleman,47,M,Raw,M_OR_APF,89.3,90,,,,,,160,170,-185,,170,,,,,,170,2,B
Marvin Coleman,47,M,Raw,M_MR_2_APF,89.3,90,,,,,,160,170,-185,,170,,,,,,170,2,B
Matthew Walsh,52,M,Raw,M_OR_APF,97.8,100,,,,,,175,182.5,-185,,182.5,,,,,,182.5,1,B
Matthew Walsh,52,M,Raw,M_MR_3_APF,97.8,100,,,,,,175,182.5,-185,,182.5,,,,,,182.5,1,B
Michael Robinson,46,M,Raw,M_OR_APF,109.2,110,,,,,,145,152.5,-160,,152.5,,,,,,152.5,7,B
Michael Robinson,46,M,Raw,M_MR_2_APF,109.2,110,,,,,,145,152.5,-160,,152.5,,,,,,152.5,2,B
Mike Krieger,35,M,Raw,M_SR_APF,90.3,100,,,,,,157.5,162.5,-170,,162.5,,,,,,162.5,1,B
Randolph Houseworth,61,M,Raw,M_MR_5_APF,174.9,140+,,,,,,192.5,-205.5,205.5,,205.5,,,,,,205.5,1,B
Rich Kelly,62,M,Raw,M_MR_5_APF,99.4,100,,,,,,147.5,152.5,-157.5,,152.5,,,,,,152.5,1,B
Rick Colwell,41,M,Raw,M_MR_1_APF,122.6,125,,,,,,182.5,187.5,190,,190,,,,,,190,1,B
Tate Briggs,21,M,Raw,M_OR_APF,141.8,140+,,,,,,-165,-165,-165,,,,,,,,,DQ,B
Tate Briggs,21,M,Raw,M_JR_APF,141.8,140+,,,,,,-165,-165,-165,,,,,,,,,DQ,B
Thomas Proya,60,M,Raw,M_MR_5_APF,80.8,82.5,,,,,,160,172.5,-177.5,,172.5,,,,,,172.5,1,B
Tim Weikert,54,M,Raw,M_MR_3_APF,98.7,100,,,,,,162.5,170,-177.5,,170,,,,,,170,2,B
Vadym Dovhanyuk,29,M,Raw,M_OR_APF,112.1,125,,,,,,250,260,265,,265,,,,,,265,1,B
Wally Stamper,54,M,Raw,M_MR_3_APF,108.7,110,,,,,,147.5,167.5,-185,,167.5,,,,,,167.5,1,B
Zach Gnatkowski,16,M,Raw,M_TR_2_APF,127.4,140,,,,,,125,-140.5,-140.5,,125,,,,,,125,1,B
