Division,WeightClassKg,Place,Name,Team,BodyweightKg,Best3SquatKg,Best3BenchKg,Best3DeadliftKg,TotalKg,Equipment,Event,Sex
Boys,51.71,1,James Ayers,Lucas Lovejoy,45,142.88,92.99,92.99,328.85,Single-ply,SBD,M
Boys,51.71,2,Lane Anthony,Nevada Community,50.08,113.4,52.16,113.4,278.96,Single-ply,SBD,M
Boys,51.71,3,Braxton Barneck,Plano,48.53,83.91,65.77,106.59,256.28,Single-ply,SBD,M
Boys,51.71,4,Bryar Skelton,Pilot Point,45.45,68.04,38.56,88.45,195.04,Single-ply,SBD,M
Boys,51.71,5,Jesus Garcia #6,Plano,41.64,61.23,34.02,74.84,170.1,Single-ply,SBD,M
Boys,55.79,1,Trey Arras,Texarkana Liberty-Eylau,55.79,179.17,113.4,185.97,478.54,Single-ply,SBD,M
Boys,55.79,2,Nate Lunsford,Frisco Wakeland,55.52,176.9,102.06,181.44,460.4,Single-ply,SBD,M
Boys,55.79,3,Phibun McDonald,Terrell,54.25,124.74,61.23,113.4,299.37,Single-ply,SBD,M
Boys,55.79,4,Kevin Henderson,Carrollton Turner,55.52,65.77,36.29,106.59,208.65,Single-ply,SBD,M
Boys,55.79,5,Angel Armijo,Carrollton Turner,54.07,74.84,43.09,83.91,201.85,Single-ply,SBD,M
Boys,55.79,6,Kevin Weiss,Plano,53.98,58.97,,,58.97,Single-ply,S,M
Boys,55.79,7,Jared McClenton,Garland Naaman Forest,55.52,58.97,,,58.97,Single-ply,S,M
Boys,59.87,1,Mario Giron,Pilot Point,57.79,158.76,102.06,158.76,419.57,Single-ply,SBD,M
Boys,59.87,2,Dalton Waller,Princeton,59.51,147.42,79.38,181.44,408.23,Single-ply,SBD,M
Boys,59.87,3,Gavin Carroll,Frisco Wakeland,59.78,149.69,74.84,136.08,360.61,Single-ply,SBD,M
Boys,59.87,4,K. Humphries,Sherman,59.15,136.08,92.99,129.27,358.34,Single-ply,SBD,M
Boys,59.87,5,Josh Chaires,Melissa,59.69,136.08,56.7,161.03,353.8,Single-ply,SBD,M
Boys,59.87,6,Camron Gray,Carrollton Creekview,59.24,136.08,68.04,142.88,347,Single-ply,SBD,M
Boys,59.87,7,Will Best,Frisco Wakeland,56.34,113.4,61.23,124.74,299.37,Single-ply,SBD,M
Boys,59.87,8,Reid Morris,Frisco Wakeland,58.15,117.93,61.23,113.4,292.57,Single-ply,SBD,M
Boys,59.87,9,Matthew Winn,Carrollton Turner,58.06,79.38,52.16,97.52,229.06,Single-ply,SBD,M
Boys,59.87,DQ,Matt Read,Frisco Heritage,58.69,,,,,Single-ply,SBD,M
Boys,67.13,1,Jeremiah Devereaux,Pilot Point,66.22,136.08,102.06,199.58,437.72,Single-ply,SBD,M
Boys,67.13,2,Mario Reyes-Discua,Nevada Community,66.04,156.49,102.06,170.1,428.64,Single-ply,SBD,M
Boys,67.13,3,David Colmenero,Pilot Point,66.86,158.76,88.45,179.17,426.38,Single-ply,SBD,M
Boys,67.13,4,Omar Villegas,Melissa,61.33,142.88,83.91,147.42,374.21,Single-ply,SBD,M
Boys,67.13,5,Enrique Colmenero,Pilot Point,62.96,140.61,63.5,170.1,374.21,Single-ply,SBD,M
Boys,67.13,6,Diego Martinez,Pilot Point,63.59,140.61,74.84,147.42,362.87,Single-ply,SBD,M
Boys,67.13,7,Ian Tanner,Carrollton Creekview,64.05,142.88,74.84,129.27,347,Single-ply,SBD,M
Boys,67.13,8,Corey Norman,Frisco Heritage,66.32,127.01,77.11,142.88,347,Single-ply,SBD,M
Boys,67.13,9,Sergio Portillo,Pilot Point,67.13,124.74,72.57,149.69,347,Single-ply,SBD,M
Boys,67.13,10,Dylan Neitsch,Lucas Lovejoy,65.14,158.76,79.38,102.06,340.19,Single-ply,SBD,M
Boys,67.13,11,Justin Maxey,Nevada Community,63.59,111.13,83.91,142.88,337.93,Single-ply,SBD,M
Boys,67.13,12,Dylan Bell,Lone Oak,66.95,117.93,72.57,127.01,317.51,Single-ply,SBD,M
Boys,67.13,13,David Patrick,Melissa,60.51,117.93,65.77,117.93,301.64,Single-ply,SBD,M
Boys,67.13,14,Greg Blackwell,Lone Oak,66.13,102.06,65.77,127.01,294.84,Single-ply,SBD,M
Boys,67.13,15,Eric Parker,Frisco Heritage,66.68,106.59,56.7,124.74,288.03,Single-ply,SBD,M
Boys,67.13,16,Cole Ariola,Carrollton Turner,61.33,106.59,65.77,113.4,285.76,Single-ply,SBD,M
Boys,67.13,17,Darren Nichols,Pilot Point,64.14,104.33,,,104.33,Single-ply,S,M
Boys,67.13,18,Austin Helton,Caddo Mills,66.04,58.97,,,58.97,Single-ply,S,M
Boys,67.13,19,Kevin Romero,Sherman,66.5,58.97,,,58.97,Single-ply,S,M
Boys,74.84,1,George Kennard,Frisco Wakeland,74.48,204.12,136.08,226.8,566.99,Single-ply,SBD,M
Boys,74.84,2,Taylor Barrett,Pilot Point,74.57,210.92,124.74,213.19,548.85,Single-ply,SBD,M
Boys,74.84,3,Max Carlile,Plano,74.48,199.58,122.47,199.58,521.63,Single-ply,SBD,M
Boys,74.84,4,Dusty Burris,Princeton,73.03,172.37,147.42,197.31,517.1,Single-ply,SBD,M
Boys,74.84,5,Phillip Mayfield,Princeton,72.67,181.44,111.13,181.44,474,Single-ply,SBD,M
Boys,74.84,6,DeVante Clayton,Sherman,73.57,170.1,102.06,192.78,464.93,Single-ply,SBD,M
Boys,74.84,7,Michael Wallace,Sherman,73.94,172.37,97.52,185.97,455.86,Single-ply,SBD,M
Boys,74.84,8,Isidro Salazar,Castleberry,73.94,149.69,111.13,181.44,442.25,Single-ply,SBD,M
Boys,74.84,9,Hudson Wallace,Lucas Lovejoy,73.84,165.56,92.99,163.29,421.84,Single-ply,SBD,M
Boys,74.84,10,Jordan Boze,Garland Naaman Forest,72.48,149.69,102.06,158.76,410.5,Single-ply,SBD,M
Boys,74.84,11,Steven Pearce,Castleberry,74.3,136.08,81.65,181.44,399.16,Single-ply,SBD,M
Boys,74.84,12,Canon Roeder,Frisco Wakeland,71.3,156.49,88.45,147.42,392.36,Single-ply,SBD,M
Boys,74.84,13,Hung Tran,Carrollton Creekview,72.57,156.49,79.38,154.22,390.09,Single-ply,SBD,M
Boys,74.84,14,Payne Painter,Caddo Mills,67.95,158.76,74.84,154.22,387.82,Single-ply,SBD,M
Boys,74.84,15,Christian Cooper,Caddo Mills,72.12,154.22,79.38,138.35,371.95,Single-ply,SBD,M
Boys,74.84,16,Peyton Lowe,Gunter,72.57,142.88,79.38,147.42,369.68,Single-ply,SBD,M
Boys,74.84,17,Darrell White #2,Garland Naaman Forest,71.67,129.27,83.91,136.08,349.27,Single-ply,SBD,M
Boys,74.84,18,Justin Ebarb,Nevada Community,72.85,142.88,70.31,136.08,349.27,Single-ply,SBD,M
Boys,74.84,19,Nathan Slemmons,Lone Oak,70.4,149.69,65.77,129.27,344.73,Single-ply,SBD,M
Boys,74.84,20,Brendene Ramos,Castleberry,74.57,127.01,77.11,136.08,340.19,Single-ply,SBD,M
Boys,74.84,21,Colby Underwood,Lone Oak,70.22,111.13,,102.06,213.19,Single-ply,SD,M
Boys,74.84,22,Spencer Mohundro,Lone Oak,69.58,129.27,74.84,,204.12,Single-ply,SB,M
Boys,74.84,23,Alex Flores,Princeton,74.39,142.88,,,142.88,Single-ply,S,M
Boys,82.1,1,Zanoah Arnold,Texarkana Liberty-Eylau,80.74,254.01,147.42,272.16,673.58,Single-ply,SBD,M
Boys,82.1,2,Blaine Jarratt,Caddo Mills,78.29,231.33,131.54,244.94,607.81,Single-ply,SBD,M
Boys,82.1,3,Andres Perez,Plano,82.01,224.53,136.08,192.78,553.38,Single-ply,SBD,M
Boys,82.1,4,Trystan McGee,Caddo Mills,79.92,192.78,136.08,219.99,548.85,Single-ply,SBD,M
Boys,82.1,5,Brandon Gonzalez,Princeton,81.37,190.51,124.74,206.38,521.63,Single-ply,SBD,M
Boys,82.1,6,Colt Gallaway,Pilot Point,76.38,176.9,124.74,190.51,492.15,Single-ply,SBD,M
Boys,82.1,7,Aaron Taylor,Caddo Mills,78.38,183.7,108.86,197.31,489.88,Single-ply,SBD,M
Boys,82.1,8,Nate Browne,Plano,81.56,181.44,129.27,174.63,485.34,Single-ply,SBD,M
Boys,82.1,9,Nick Butler,Caddo Mills,81.37,163.29,111.13,206.38,480.81,Single-ply,SBD,M
Boys,82.1,10,Payton Wallace,Melissa,79.83,181.44,108.86,181.44,471.74,Single-ply,SBD,M
Boys,82.1,11,Jayladon Hill,Princeton,81.19,174.63,95.25,181.44,451.32,Single-ply,SBD,M
Boys,82.1,12,Jonathan Vaquera,Frisco Wakeland,81.92,158.76,102.06,181.44,442.25,Single-ply,SBD,M
Boys,82.1,13,Donovan Bakare,Carrollton Creekview,81.92,174.63,102.06,158.76,435.45,Single-ply,SBD,M
Boys,82.1,14,Zach Lowe,Gunter,79.47,165.56,92.99,165.56,424.11,Single-ply,SBD,M
Boys,82.1,15,Brandon Perdue #2,Gunter,81.01,151.95,102.06,158.76,412.77,Single-ply,SBD,M
Boys,82.1,16,Micah Henson,Pilot Point,76.38,142.88,90.72,170.1,403.7,Single-ply,SBD,M
Boys,82.1,17,Kevin Buriagen,Carrollton Turner,79.47,122.47,99.79,158.76,381.02,Single-ply,SBD,M
Boys,82.1,18,Matthew Jonke,Lucas Lovejoy,78.47,147.42,74.84,151.95,374.21,Single-ply,SBD,M
Boys,82.1,19,Luke Wilkins,Terrell,81.56,145.15,86.18,142.88,374.21,Single-ply,SBD,M
Boys,82.1,20,Adrian Brown,Garland Naaman Forest,79.02,154.22,79.38,136.08,369.68,Single-ply,SBD,M
Boys,82.1,21,Nathan Ihle,Terrell,76.11,138.35,83.91,142.88,365.14,Single-ply,SBD,M
Boys,82.1,22,Jarred Brown,Frisco Heritage,79.65,142.88,83.91,138.35,365.14,Single-ply,SBD,M
Boys,82.1,23,Jason Wiroll,Lone Oak,81.28,138.35,70.31,154.22,362.87,Single-ply,SBD,M
Boys,82.1,24,Michael Clark,Gunter,77.11,138.35,88.45,117.93,344.73,Single-ply,SBD,M
Boys,82.1,25,Cameron Jeffery,Garland Naaman Forest,79.2,122.47,81.65,120.2,324.32,Single-ply,SBD,M
Boys,82.1,26,Chris O'Hair,Caddo Mills,80.74,113.4,68.04,136.08,317.51,Single-ply,SBD,M
Boys,82.1,27,Raymond Sanchez,Terrell,76.29,97.52,72.57,115.67,285.76,Single-ply,SBD,M
Boys,82.1,28,Tyler Williams,Lone Oak,80.01,106.59,61.23,108.86,276.69,Single-ply,SBD,M
Boys,82.1,29,John Mark Box,Melissa,76.84,145.15,79.38,,224.53,Single-ply,SB,M
Boys,89.81,1,Jose Hernandez #14,Princeton,89.63,226.8,136.08,226.8,589.67,Single-ply,SBD,M
Boys,89.81,2,Antonio Puga,Pilot Point,83.82,185.97,120.2,204.12,510.29,Single-ply,SBD,M
Boys,89.81,3,Diego Puga,Pilot Point,86.55,192.78,111.13,204.12,508.02,Single-ply,SBD,M
Boys,89.81,4,Brock Prengler,Lucas Lovejoy,89.09,190.51,106.59,199.58,496.68,Single-ply,SBD,M
Boys,89.81,5,Ja'Bray Young,Melissa,84.28,199.58,106.59,181.44,487.61,Single-ply,SBD,M
Boys,89.81,6,Matthew Ortiz,Castleberry,85.46,188.24,102.06,190.51,480.81,Single-ply,SBD,M
Boys,89.81,7,D'Wayne Coleman,Texarkana Liberty-Eylau,88.09,174.63,115.67,179.17,469.47,Single-ply,SBD,M
Boys,89.81,8,Breelyn Armstrong,Melissa,88.72,158.76,113.4,165.56,437.72,Single-ply,SBD,M
Boys,89.81,9,Seth Gammage,Lone Oak,84.91,158.76,92.99,154.22,405.97,Single-ply,SBD,M
Boys,89.81,10,Ceasar Ramirez,Frisco Wakeland,89.18,170.1,83.91,131.54,385.55,Single-ply,SBD,M
Boys,89.81,11,Colton Wilson,Nevada Community,84.46,124.74,83.91,165.56,374.21,Single-ply,SBD,M
Boys,89.81,12,Zach Rodriguez,Lucas Lovejoy,86.36,124.74,92.99,136.08,353.8,Single-ply,SBD,M
Boys,89.81,13,Jake Reed,Gunter,84.91,129.27,83.91,138.35,351.53,Single-ply,SBD,M
Boys,89.81,14,Gabe Rodriguez,Castleberry,83.73,124.74,77.11,120.2,322.05,Single-ply,SBD,M
Boys,89.81,15,Tommy Sanchez,Terrell,89.09,120.2,65.77,129.27,315.25,Single-ply,SBD,M
Boys,89.81,16,Dartanyon Cardoza,Gunter,83.19,145.15,,,145.15,Single-ply,S,M
Boys,89.81,DQ,Jacob Veres,Frisco Wakeland,88.99,,,,,Single-ply,SBD,M
Boys,99.79,1,Darrell Houff,Texarkana Liberty-Eylau,97.7,215.46,192.78,215.46,623.69,Single-ply,SBD,M
Boys,99.79,2,Chris Taylor #3,Caddo Mills,95.8,233.6,129.27,210.92,573.79,Single-ply,SBD,M
Boys,99.79,3,Kade Ashley,Lucas Lovejoy,97.07,219.99,158.76,192.78,571.53,Single-ply,SBD,M
Boys,99.79,4,Michael Hodge,Texarkana Liberty-Eylau,99.25,204.12,133.81,229.06,566.99,Single-ply,SBD,M
Boys,99.79,5,Bryton Jimenez,Lone Oak,94.98,226.8,111.13,226.8,564.72,Single-ply,SBD,M
Boys,99.79,6,Mason Chapa,Castleberry,98.43,208.65,129.27,219.99,557.92,Single-ply,SBD,M
Boys,99.79,7,Justin Pate,Caddo Mills,94.71,199.58,120.2,208.65,528.44,Single-ply,SBD,M
Boys,99.79,8,Sergio Arriaga,Lucas Lovejoy,94.08,206.38,111.13,197.31,514.83,Single-ply,SBD,M
Boys,99.79,9,Marsalis Upshaw,Plano,91.9,195.04,131.54,183.7,510.29,Single-ply,SBD,M
Boys,99.79,10,Ezequiel Trejo,Pilot Point,91.08,195.04,108.86,192.78,496.68,Single-ply,SBD,M
Boys,99.79,11,Tristen Myers,Carrollton Creekview,93.71,183.7,124.74,170.1,478.54,Single-ply,SBD,M
Boys,99.79,12,Tremaine Brown,Texarkana Liberty-Eylau,91.35,165.56,122.47,174.63,462.66,Single-ply,SBD,M
Boys,99.79,13,Tyson Owen,Melissa,92.62,195.04,102.06,158.76,455.86,Single-ply,SBD,M
Boys,99.79,14,Isiah Montoya,Princeton,98.43,165.56,136.08,142.88,444.52,Single-ply,SBD,M
Boys,99.79,15,Aiden Carter,Princeton,95.71,147.42,115.67,147.42,410.5,Single-ply,SBD,M
Boys,99.79,16,Mason Kimberling,Nevada Community,91.35,124.74,124.74,158.76,408.23,Single-ply,SBD,M
Boys,99.79,17,Gage Biggerstaff,Gunter,95.8,133.81,97.52,158.76,390.09,Single-ply,SBD,M
Boys,99.79,18,Ryan Humphries #2,Melissa,98.07,163.29,90.72,136.08,390.09,Single-ply,SBD,M
Boys,99.79,19,Durim Negron,Garland Naaman Forest,96.34,154.22,97.52,136.08,387.82,Single-ply,SBD,M
Boys,99.79,20,Evan Billmeier,Pilot Point,95.53,142.88,104.33,136.08,383.29,Single-ply,SBD,M
Boys,99.79,21,Weston Hall,Lucas Lovejoy,94.53,131.54,81.65,147.42,360.61,Single-ply,SBD,M
Boys,99.79,22,David Schaeger,Frisco Wakeland,91.81,129.27,79.38,140.61,349.27,Single-ply,SBD,M
Boys,99.79,23,Issa Diop,Carrollton Creekview,91.26,122.47,70.31,127.01,319.78,Single-ply,SBD,M
Boys,99.79,24,Robert Baker,Terrell,99.25,106.59,77.11,136.08,319.78,Single-ply,SBD,M
Boys,99.79,25,Connor Lynch #2,Pilot Point,97.79,154.22,,,154.22,Single-ply,S,M
Boys,99.79,DQ,Logan Jones,Gunter,90.81,,,,,Single-ply,SBD,M
Boys,109.77,1,Mauricio Rojas,Carrollton Turner,102.97,235.87,147.42,217.72,601.01,Single-ply,SBD,M
Boys,109.77,2,Cody Banks #2,Caddo Mills,107.41,240.4,129.27,215.46,585.13,Single-ply,SBD,M
Boys,109.77,3,Cheyenne Lockhart,Texarkana Liberty-Eylau,108.05,215.46,124.74,222.26,562.45,Single-ply,SBD,M
Boys,109.77,4,Colton Bergt,Texarkana Liberty-Eylau,107.68,217.72,117.93,215.46,551.11,Single-ply,SBD,M
Boys,109.77,5,Nathan Omayebu,Sherman,107.23,215.46,129.27,201.85,546.58,Single-ply,SBD,M
Boys,109.77,6,Obed Guerrero,Carrollton Turner,104.51,222.26,120.2,190.51,532.97,Single-ply,SBD,M
Boys,109.77,7,Justin Nichols,Sherman,105.51,204.12,129.27,190.51,523.9,Single-ply,SBD,M
Boys,109.77,8,Roberto Padilla,Garland Naaman Forest,102.24,170.1,81.65,174.63,426.38,Single-ply,SBD,M
Boys,109.77,9,Brian Blackwell,Melissa,104.69,163.29,83.91,136.08,383.29,Single-ply,SBD,M
Boys,109.77,10,Dominique Spencer,Carrollton Turner,106.5,149.69,83.91,,233.6,Single-ply,SB,M
Boys,124.74,1,Jerry Daniel,Nevada Community,122.38,324.32,204.12,249.48,777.91,Single-ply,SBD,M
Boys,124.74,2,Alex Escandon,Nevada Community,115.58,226.8,147.42,188.24,562.45,Single-ply,SBD,M
Boys,124.74,3,Austin Norton,Nevada Community,121.2,222.26,120.2,204.12,546.58,Single-ply,SBD,M
Boys,124.74,4,Zach Zeman,Frisco Wakeland,120.84,204.12,124.74,204.12,532.97,Single-ply,SBD,M
Boys,124.74,5,Hayden Hayes,Sherman,120.11,199.58,120.2,204.12,523.9,Single-ply,SBD,M
Boys,124.74,6,Ty Rockins,Sherman,116.48,206.38,99.79,199.58,505.76,Single-ply,SBD,M
Boys,124.74,7,De'Waven Rowden,Texarkana Liberty-Eylau,111.04,197.31,120.2,181.44,498.95,Single-ply,SBD,M
Boys,124.74,8,Garrett Carpenter,Lone Oak,114.4,210.92,92.99,192.78,496.68,Single-ply,SBD,M
Boys,124.74,9,Steven Rico,Carrollton Turner,118.48,181.44,124.74,181.44,487.61,Single-ply,SBD,M
Boys,124.74,10,Efren Solorzano,Plano,112.13,183.7,124.74,174.63,483.08,Single-ply,SBD,M
Boys,124.74,11,Kevin Johnson #5,Plano,113.31,165.56,129.27,181.44,476.27,Single-ply,SBD,M
Boys,124.74,12,Gabriel Lutz,Nevada Community,118.66,183.7,111.13,181.44,476.27,Single-ply,SBD,M
Boys,124.74,13,Connor Green,Texarkana Liberty-Eylau,120.47,192.78,102.06,158.76,453.59,Single-ply,SBD,M
Boys,124.74,14,Frank Martinez,Garland Naaman Forest,119.2,183.7,113.4,149.69,446.79,Single-ply,SBD,M
Boys,124.74,15,Dalton Hummel,Plano,115.3,138.35,117.93,170.1,426.38,Single-ply,SBD,M
Boys,124.74,16,Garrett Bowen,Melissa,116.39,147.42,86.18,142.88,376.48,Single-ply,SBD,M
Boys,124.74,17,Reagan Spencer,Gunter,121.11,156.49,,,156.49,Single-ply,S,M
Boys,124.74+,1,Carlos Giron,Pilot Point,139.43,263.08,176.9,240.4,680.39,Single-ply,SBD,M
Boys,124.74+,2,Nicholas Carbajhal,Carrollton Turner,134.44,238.14,163.29,242.67,644.1,Single-ply,SBD,M
Boys,124.74+,3,Mike Grimes,Princeton,150.59,240.4,165.56,226.8,632.76,Single-ply,SBD,M
Boys,124.74+,4,Josh Sniticker,Sherman,143.61,215.46,156.49,215.46,587.4,Single-ply,SBD,M
Boys,124.74+,5,Damon Lippert,Sherman,139.53,219.99,156.49,204.12,580.6,Single-ply,SBD,M
Boys,124.74+,6,Ak Inyang,Plano,143.52,192.78,170.1,206.38,569.26,Single-ply,SBD,M
Boys,124.74+,7,Tucker Rowland,Frisco Heritage,135.26,197.31,163.29,197.31,557.92,Single-ply,SBD,M
Boys,124.74+,8,Jacob Pulley,Caddo Mills,130.63,213.19,120.2,215.46,548.85,Single-ply,SBD,M
Boys,124.74+,9,Shamal Parish,Texarkana Liberty-Eylau,157.4,217.72,136.08,185.97,539.77,Single-ply,SBD,M
Boys,124.74+,10,Andrew Martinez,Carrollton Turner,133.63,163.29,127.01,204.12,494.42,Single-ply,SBD,M
Boys,124.74+,11,Quintana Reyes,Pilot Point,148.05,149.69,120.2,142.88,412.77,Single-ply,SBD,M
Boys,124.74+,12,Cruz Tobar,Sherman,166.92,197.31,111.13,,308.44,Single-ply,SB,M
Boys,124.74+,DQ,Tekarious Walton,Sherman,125.19,,,,,Single-ply,SBD,M
Boys,,NS,Cole Morris,Lone Oak,,,,,,Single-ply,SBD,M
Boys,,NS,Cole Daniel,Lone Oak,,,,,,Single-ply,SBD,M
Boys,,NS,Josh Grimm,Castleberry,,,,,,Single-ply,SBD,M
Boys,,NS,Mario Cruz,Castleberry,,,,,,Single-ply,SBD,M
Boys,,NS,Valdemar Ramirez,Castleberry,,,,,,Single-ply,SBD,M
Boys,,NS,Andrew Bseiso,Castleberry,,,,,,Single-ply,SBD,M
Boys,,NS,Caleb McKenzie,Castleberry,,,,,,Single-ply,SBD,M
Boys,,NS,Andrew Miller #5,Nevada Community,,,,,,Single-ply,SBD,M
Boys,,NS,CJ Washington,Princeton,,,,,,Single-ply,SBD,M
Boys,,NS,Chandler Jones,Nevada Community,,,,,,Single-ply,SBD,M
Boys,,NS,Long Nguyen,Carrollton Creekview,,,,,,Single-ply,SBD,M
Boys,,NS,Ryan Zarate,Carrollton Creekview,,,,,,Single-ply,SBD,M
Boys,,NS,Gabe Willis,Carrollton Creekview,,,,,,Single-ply,SBD,M
Boys,,NS,Matthew Seng,Carrollton Creekview,,,,,,Single-ply,SBD,M
Boys,,NS,Thanh Nguyen #4,Carrollton Creekview,,,,,,Single-ply,SBD,M
Boys,,NS,Aaron Cyrus,Carrollton Creekview,,,,,,Single-ply,SBD,M
Boys,,NS,Mason Snow,Gunter,,,,,,Single-ply,SBD,M
Boys,,NS,Will Roane,Gunter,,,,,,Single-ply,SBD,M
Boys,,NS,Coleton Beathard,Pilot Point,,,,,,Single-ply,SBD,M
Boys,,NS,Sheldon Melito,Garland Naaman Forest,,,,,,Single-ply,SBD,M
Boys,,NS,Logan Simpson,Lucas Lovejoy,,,,,,Single-ply,SBD,M
Boys,,NS,Adrealan Brown,Garland Naaman Forest,,,,,,Single-ply,SBD,M
Boys,,NS,Tyreese Jackson,Garland Naaman Forest,,,,,,Single-ply,SBD,M
Boys,,NS,Emmanuel Martinez,Garland Naaman Forest,,,,,,Single-ply,SBD,M
Boys,,NS,Zachary Helton,Plano,,,,,,Single-ply,SBD,M
Boys,,NS,Andy Moreno,Plano,,,,,,Single-ply,SBD,M
Boys,,NS,Otavius Rose,Terrell,,,,,,Single-ply,SBD,M
